…
    #compute root biomass and root biomass density
    bg_plant_biomass<-bg_plant %>% 
      rename(plot=plot_number) %>%
      mutate(trmt=ifelse(plot %in% c(1,3,5,8,9,11),"Gh","Ex")) %>% #assign trmts
      mutate(root_g_m2=(crucible_plant_g-crucible_ash_g)*315.764039) %>% #calculate root biomass & convert to g/m^2
      select(plot,trmt,location,depth_cm,root_g_m2) %>%
      add_row(plot=c(1,1,2),trmt=c("Gh","Gh","Ex"),location=c("B","P","P"), #add NAs
              depth_cm=c("10-20","10-20","10-20"),root_g_m2=rep(NA,3)) %>%
      arrange(plot,location,depth_cm) #sort data
    bg_plant_biomass

    ## # A tibble: 48 x 5
    ##     plot trmt  location depth_cm root_g_m2
    ##    <dbl> <chr> <chr>    <chr>        <dbl>
    ##  1     1 Gh    B        0-10          831.
    ##  2     1 Gh    B        10-20          NA 
    ##  3     1 Gh    P        0-10          366.
    ##  4     1 Gh    P        10-20          NA 
    ##  5     2 Ex    B        0-10          579.
    ##  6     2 Ex    B        10-20         205.
    ##  7     2 Ex    P        0-10          362.
    ##  8     2 Ex    P        10-20          NA 
    ##  9     3 Gh    B        0-10          457.
    ## 10     3 Gh    B        10-20         140.
    ## # … with 38 more rows
…
